^C:\USERS\S163927\DOCUMENTS\DYNAMIC-DATA-STRUCTURES\BINARYTREE\BINARYTREE\BINARYTREE\BINARYTREE.CPP
/c /ZI /nologo /W3 /WX- /Od /Oy- /D WIN32 /D _DEBUG /D _CONSOLE /D _UNICODE /D UNICODE /Gm /EHsc /RTC1 /MDd /GS /fp:precise /Zc:wchar_t /Zc:forScope /Zc:inline /Fo"DEBUG\\" /Fd"DEBUG\VC140.PDB" /Gd /TP /analyze- C:\USERS\S163927\DOCUMENTS\DYNAMIC-DATA-STRUCTURES\BINARYTREE\BINARYTREE\BINARYTREE\BINARYTREE.CPP
^C:\USERS\S163927\DOCUMENTS\DYNAMIC-DATA-STRUCTURES\BINARYTREE\BINARYTREE\BINARYTREE\BINARYTREENODE.CPP
/c /ZI /nologo /W3 /WX- /Od /Oy- /D WIN32 /D _DEBUG /D _CONSOLE /D _UNICODE /D UNICODE /Gm /EHsc /RTC1 /MDd /GS /fp:precise /Zc:wchar_t /Zc:forScope /Zc:inline /Fo"DEBUG\\" /Fd"DEBUG\VC140.PDB" /Gd /TP /analyze- C:\USERS\S163927\DOCUMENTS\DYNAMIC-DATA-STRUCTURES\BINARYTREE\BINARYTREE\BINARYTREE\BINARYTREENODE.CPP
^C:\USERS\S163927\DOCUMENTS\DYNAMIC-DATA-STRUCTURES\BINARYTREE\BINARYTREE\BINARYTREE\SOURCE.CPP
/c /ZI /nologo /W3 /WX- /Od /Oy- /D WIN32 /D _DEBUG /D _CONSOLE /D _UNICODE /D UNICODE /Gm /EHsc /RTC1 /MDd /GS /fp:precise /Zc:wchar_t /Zc:forScope /Zc:inline /Fo"DEBUG\\" /Fd"DEBUG\VC140.PDB" /Gd /TP /analyze- C:\USERS\S163927\DOCUMENTS\DYNAMIC-DATA-STRUCTURES\BINARYTREE\BINARYTREE\BINARYTREE\SOURCE.CPP
