^C:\USERS\S163927\DOCUMENTS\HASHTABLE\HASHING\HASHING\DEBUG\HASHTABLE.OBJ|C:\USERS\S163927\DOCUMENTS\HASHTABLE\HASHING\HASHING\DEBUG\SOURCE.OBJ
C:\USERS\S163927\DOCUMENTS\HASHTABLE\HASHING\DEBUG\HASHING.ILK
C:\USERS\S163927\DOCUMENTS\HASHTABLE\HASHING\DEBUG\HASHING.EXE
C:\USERS\S163927\DOCUMENTS\HASHTABLE\HASHING\DEBUG\HASHING.PDB
